module app/dompetku

go 1.16

require (
	github.com/dgrijalva/jwt-go v3.2.0+incompatible
	github.com/labstack/echo v3.3.10+incompatible
	github.com/labstack/gommon v0.3.0 // indirect
	github.com/stretchr/testify v1.7.0 // indirect
	golang.org/x/crypto v0.0.0-20210921155107-089bfa567519
	gorm.io/driver/mysql v1.1.2
	gorm.io/gorm v1.21.15
)
